<?xml version="1.0" standalone="no"?>
<!DOCTYPE svg PUBLIC "-//W3C//DTD SVG 1.1//EN" "http://www.w3.org/Graphics/SVG/1.1/DTD/svg11.dtd" >
<svg xmlns="http://www.w3.org/2000/svg">
<metadata>Generated by IcoMoon</metadata>
<defs>
<font id="icomoon" horiz-adv-x="1024">
<font-face units-per-em="1024" ascent="960" descent="-64" />
<missing-glyph horiz-adv-x="1024" />
<glyph unicode="&#x20;" horiz-adv-x="512" d="" />
<glyph unicode="&#xe902;" glyph-name="Menu" d="M0 0v128h640v-128zM0 384v128h1024v-128zM0 768v128h1024v-128z" />
<glyph unicode="&#xe903;" glyph-name="Actu" horiz-adv-x="1035" d="M0 63.984h1035.258v-127.984h-1035.258zM0 511.992h1035.258v-320.024h-1035.258zM452.926 960h582.333v-320.024h-582.333zM0 960h323.518v-320.024h-323.518z" />
</font></defs></svg>