{
  "IcoMoonType": "selection",
  "icons": [
    {
      "icon": {
        "paths": [
          "M443.931 426.173h195.329v136.139h-195.329z"
        ],
        "attrs": [
          {}
        ],
        "width": 1083,
        "isMulticolor": false,
        "isMulticolor2": false,
        "grid": 0,
        "tags": [
          "Feuille"
        ]
      },
      "attrs": [
        {}
      ],
      "properties": {
        "order": 12,
        "id": 0,
        "name": "Feuille",
        "prevSize": 32,
        "code": 59648
      },
      "setIdx": 0,
      "setId": 3,
      "iconIdx": 0
    },
    {
      "icon": {
        "paths": [
          "M0 960v-128h640v128zM0 576v-128h1024v128zM0 192v-128h1024v128z"
        ],
        "attrs": [
          {
            "fill": "rgb(95, 94, 100)"
          }
        ],
        "isMulticolor": false,
        "isMulticolor2": false,
        "grid": 0,
        "tags": [
          "Menu"
        ],
        "colorPermutations": {
          "255255255195941001": [
            {
              "f": 0
            }
          ]
        }
      },
      "attrs": [
        {
          "fill": "rgb(95, 94, 100)"
        }
      ],
      "properties": {
        "order": 10,
        "id": 1,
        "name": "Menu",
        "prevSize": 32,
        "code": 59650
      },
      "setIdx": 1,
      "setId": 2,
      "iconIdx": 0
    },
    {
      "icon": {
        "paths": [
          "M0 896.016h1035.258v127.984h-1035.258zM0 448.008h1035.258v320.024h-1035.258zM452.926 0h582.333v320.024h-582.333zM0 0h323.518v320.024h-323.518z"
        ],
        "attrs": [
          {
            "fill": "rgb(255, 255, 255)",
            "opacity": 0.5
          }
        ],
        "width": 1035,
        "isMulticolor": false,
        "isMulticolor2": false,
        "grid": 0,
        "tags": [
          "Feed"
        ]
      },
      "attrs": [
        {
          "fill": "rgb(255, 255, 255)",
          "opacity": 0.5
        }
      ],
      "properties": {
        "order": 11,
        "id": 0,
        "name": "Feed",
        "prevSize": 32,
        "code": 59651
      },
      "setIdx": 1,
      "setId": 2,
      "iconIdx": 1
    }
  ],
  "height": 1024,
  "metadata": {
    "name": "icomoon"
  },
  "preferences": {
    "showGlyphs": true,
    "showQuickUse": true,
    "showQuickUse2": true,
    "showSVGs": true,
    "fontPref": {
      "prefix": "icon-",
      "metadata": {
        "fontFamily": "icomoon"
      },
      "metrics": {
        "emSize": 1024,
        "baseline": 6.25,
        "whitespace": 50
      },
      "embed": false
    },
    "imagePref": {
      "prefix": "icon-",
      "png": true,
      "useClassSelector": true,
      "color": 0,
      "bgColor": 16777215,
      "classSelector": ".icon"
    },
    "historySize": 50,
    "showCodes": true,
    "gridSize": 16
  }
}